{
  "header": {
    "logo": {
      "include()": {
        "pattern": "components-logo"
      }
    },
    "mainMenu": {
      "include()": {
        "pattern": "components-tree-menu",
        "with": {
          "treeMenu": {
            "class": "main-menu",
            "items": [
              {
                "link": {
                  "include()": {
                    "pattern": "base-elements-link",
                    "with": {
                      "link": {
                        "href": "#",
                        "text": "About",
                        "class": ""
                      }
                    },
                    "only": true
                  }
                }
              },
              {
                "link": {
                  "include()": {
                    "pattern": "base-elements-link",
                    "with": {
                      "link": {
                        "href": "#",
                        "text": "Courses",
                        "class": ""
                      }
                    },
                    "only": true
                  }
                }
              },
              {
                "link": {
                  "include()": {
                    "pattern": "base-elements-link",
                    "with": {
                      "link": {
                        "href": "#",
                        "text": "Student Life",
                        "class": ""
                      }
                    },
                    "only": true
                  }
                },
                "below": [
                  {
                    "link": {
                      "include()": {
                        "pattern": "base-elements-link",
                        "with": {
                          "link": {
                            "href": "#",
                            "text": "Clubs",
                            "class": ""
                          }
                        },
                        "only": true
                      }
                    }
                  },
                  {
                    "link": {
                      "include()": {
                        "pattern": "base-elements-link",
                        "with": {
                          "link": {
                            "href": "#",
                            "text": "Housing",
                            "class": ""
                          }
                        },
                        "only": true
                      }
                    }
                  },
                  {
                    "link": {
                      "include()": {
                        "pattern": "base-elements-link",
                        "with": {
                          "link": {
                            "href": "#",
                            "text": "Schedules",
                            "class": ""
                          }
                        },
                        "only": true
                      }
                    }
                  },
                  {
                    "link": {
                      "include()": {
                        "pattern": "base-elements-link",
                        "with": {
                          "link": {
                            "href": "#",
                            "text": "Dining",
                            "class": ""
                          }
                        },
                        "only": true
                      }
                    }
                  },
                  {
                    "link": {
                      "include()": {
                        "pattern": "base-elements-link",
                        "with": {
                          "link": {
                            "href": "#",
                            "text": "Rules and Codes of conduct",
                            "class": ""
                          }
                        },
                        "only": true
                      }
                    }
                  }
                ]
              },
              {
                "link": {
                  "include()": {
                    "pattern": "base-elements-link",
                    "with": {
                      "link": {
                        "href": "#",
                        "text": "FAQ",
                        "class": ""
                      }
                    },
                    "only": true
                  }
                }
              },
              {
                "link": {
                  "include()": {
                    "pattern": "base-elements-link",
                    "with": {
                      "link": {
                        "href": "#",
                        "text": "Tuition &amp; Dates",
                        "class": ""
                      }
                    },
                    "only": true
                  }
                }
              }
            ]
          }
        },
        "only": true
      }
    }
  }
}
