{
  "videoPoster": {
    "video": {
      "include()": {
        "pattern": "base-elements-youtube-embed"
      }
    },
    "image": {
      "include()": {
        "pattern": "base-elements-image",
        "with": {
          "image": {
            "src": "https://picsum.photos/960/540/",
            "alt": "Delphix image",
            "width": "960",
            "height": "540"
          }
        }
      }
    }
  }
}
