{
  "cards": {
    "backgroundColor": "bg--white text--dark",
    "items": [
      {
        "include()": {
          "pattern": "components-cards-item",
          "with": {
            "cardsItem": {
              "title": "Quamquam te quidem video minime esse",
              "image": {
                "include()": {
                  "pattern": "base-elements-image",
                  "with": {
                    "image": {
                      "src": "//unsplash.it/960/540",
                      "alt": "FCL image",
                      "width": "960",
                      "height": "540"
                    }
                  },
                  "only": true
                }
              },
              "type": "Polemenis",
              "links": {
                "include()": {
                  "pattern": "base-elements-link",
                  "with": {
                    "link": {
                      "href": "#",
                      "text": "Learn more"
                    }
                  },
                  "only": true
                }
              }
            }
          },
          "only": true
        }
      },
      {
        "include()": {
          "pattern": "components-cards-item",
          "with": {
            "cardsItem": {
              "title": "Maximas vero virtutes iacere omnis necesse est voluptate dominante",
              "image": {
                "include()": {
                  "pattern": "base-elements-image",
                  "with": {
                    "image": {
                      "src": "//unsplash.it/960/540",
                      "alt": "FCL image",
                      "width": "960",
                      "height": "540"
                    }
                  },
                  "only": true
                }
              },
              "type": "BRESAOLA PRIORIS",
              "links": {
                "include()": {
                  "pattern": "base-elements-link",
                  "with": {
                    "link": {
                      "href": "#",
                      "text": "Learn more"
                    }
                  },
                  "only": true
                }
              }
            }
          },
          "only": true
        }
      },
      {
        "include()": {
          "pattern": "components-cards-item",
          "with": {
            "cardsItem": {
              "title": "Qua ex cognitione facilior facta est investigatio rerum occultissimarum",
              "image": {
                "include()": {
                  "pattern": "base-elements-image",
                  "with": {
                    "image": {
                      "src": "//unsplash.it/960/540",
                      "alt": "FCL image",
                      "width": "960",
                      "height": "540"
                    }
                  },
                  "only": true
                }
              },
              "type": "BOUDIN",
              "links": {
                "include()": {
                  "pattern": "base-elements-link",
                  "with": {
                    "link": {
                      "href": "#",
                      "text": "Learn more"
                    }
                  },
                  "only": true
                }
              }
            }
          },
          "only": true
        }
      }
    ]
  }
}
