{
  "articleDetail": {
    "breadcrumbs": {
      "include()": {
        "pattern": "components-breadcrumbs"
      }
    },
    "title": "We just installed Craft!",
    "postDate": "Posted on November 15, 2017",
    "media": {
      "include()": {
        "pattern": "base-elements-picture",
        "with": {
          "picture": {
            "srcDesktop": "//unsplash.it/1600/900/",
            "srcTablet": "//unsplash.it/1024/576/",
            "src": "//unsplash.it/768/432/",
            "alt": "FCL image"
          },
          "only": true
        }
      }
    },
    "body": "<p>Nulla et lacus vitae dui faucibus posuere vel in est. Curabitur ut ullamcorper tortor. Vivamus sagittis nibh vitae enim varius, ac porttitor metus rutrum. Pellentesque pharetra lorem iaculis risus blandit, et lacinia magna iaculis. Nulla et lacus vitae dui faucibus posuere vel in est. Curabitur ut ullamcorper tortor. Vivamus sagittis nibh vitae enim varius, ac porttitor metus rutrum. Pellentesque pharetra lorem iaculis risus blandit, et lacinia magna iaculis. Nulla et lacus vitae dui faucibus posuere vel in est. Curabitur ut ullamcorper tortor. Vivamus sagittis nibh vitae enim varius, ac porttitor metus rutrum. Pellentesque pharetra lorem iaculis risus blandit, et lacinia magna iaculis.</p><p>Nulla et lacus vitae dui faucibus posuere vel in est. Curabitur ut ullamcorper tortor. Vivamus sagittis nibh vitae enim varius, ac porttitor metus rutrum. Pellentesque pharetra lorem iaculis risus blandit, et lacinia magna iaculis. Nulla et lacus vitae dui faucibus posuere vel in est. Curabitur ut ullamcorper tortor. Vivamus sagittis nibh vitae enim varius, ac porttitor metus rutrum. Pellentesque pharetra lorem iaculis risus blandit, et lacinia magna iaculis. Nulla et lacus vitae dui faucibus posuere vel in est. Curabitur ut ullamcorper tortor. Vivamus sagittis nibh vitae enim varius, ac porttitor metus rutrum. Pellentesque pharetra lorem iaculis risus blandit, et lacinia magna iaculis.</p><table border='1' cellpadding='1' cellspacing='1' style='width: 1059px;'><th style='width: 241px; vertical-align: top;'>Lorem Ipsum is simply</th><th style='width: 220px; vertical-align: top;'>Lorem Ipsum is simply</th><th style='width: 254px; vertical-align: top;'>Lorem Ipsum is simply</th><th style='width: 288px; vertical-align: top;'>Lorem Ipsum is simply</th></tr></thead><tbody><tr><td style='width: 241px; vertical-align: top;'>Lorem Ipsum is simply dummy text of the printing and typesetting industry. Lorem Ipsum has been the industry's standard dummy text ever since the 1500s, when an unknown printer took a galley of type and scrambled it to make a type specimen book. It has survived not only five centuries, but also the leap into electronic typesetting, remaining essentially unchanged. It was popularised in the 1960s with the release of Letraset sheets containing Lorem Ipsum passages, and more recently with desktop publishing software like Aldus PageMaker including versions of Lorem Ipsum.</td><td style='width: 220px; vertical-align: top;'>Lorem Ipsum is simply dummy text of the printing and typesetting industry. Lorem Ipsum has been the industry's standard dummy text ever since the 1500s, when an unknown printer took a galley of type and scrambled it to make a type specimen book. It has survived not only five centuries, but also the leap into electronic typesetting, remaining essentially unchanged. It was popularised in the 1960s with the release of Letraset sheets containing Lorem Ipsum passages, and more recently with desktop publishing software like Aldus PageMaker including versions of Lorem Ipsum.</td><td style='width: 254px; vertical-align: top;'>Lorem Ipsum is simply dummy text of the printing and typesetting industry. Lorem Ipsum has been the industry's standard dummy text ever since the 1500s, when an unknown printer took a galley of type and scrambled it to make a type specimen book. It has survived not only five centuries, but also the leap into electronic typesetting, remaining essentially unchanged. It was popularised in the 1960s with the release of Letraset sheets containing Lorem Ipsum passages, and more recently with desktop publishing software like Aldus PageMaker including versions of Lorem Ipsum.</td><td style='width: 288px; vertical-align: top;'>Lorem Ipsum is simply dummy text of the printing and typesetting industry. Lorem Ipsum has been the industry's standard dummy text ever since the 1500s, when an unknown printer took a galley of type and scrambled it to make a type specimen book. It has survived not only five centuries, but also the leap into electronic typesetting, remaining essentially unchanged. It was popularised in the 1960s with the release of Letraset sheets containing Lorem Ipsum passages, and more recently with desktop publishing software like Aldus PageMaker including versions of Lorem Ipsum.</td></tr></tbody></table><p>Nulla et lacus vitae dui faucibus posuere vel in est. Curabitur ut ullamcorper tortor. Vivamus sagittis nibh vitae enim varius, ac porttitor metus rutrum. Pellentesque pharetra lorem iaculis risus blandit, et lacinia magna iaculis. Nulla et lacus vitae dui faucibus posuere vel in est. Curabitur ut ullamcorper tortor. Vivamus sagittis nibh vitae enim varius, ac porttitor metus rutrum. Pellentesque pharetra lorem iaculis risus blandit, et lacinia magna iaculis. Nulla et lacus vitae dui faucibus posuere vel in est. Curabitur ut ullamcorper tortor. Vivamus sagittis nibh vitae enim varius, ac porttitor metus rutrum. Pellentesque pharetra lorem iaculis risus blandit, et lacinia magna iaculis.</p>",
    "tags": "<label>Tags:</label><div><a href='#'>Tag 1</a>, <a href='#'>Tag 2</a>, <a href='#'>Tag 3</a></div>"
  }
}
